<svg width="20" height="20" viewBox="0 0 20 20" fill="none" xmlns="http://www.w3.org/2000/svg">
<path fill-rule="evenodd" clip-rule="evenodd" d="M11.3071 9.99999L19.2928 17.9857L17.9857 19.2929L9.99994 11.3072L2.01422 19.2929L0.707045 17.9857L8.69276 9.99999L0.707046 2.01427L2.01422 0.707092L9.99994 8.69281L17.9857 0.707092L19.2928 2.01427L11.3071 9.99999Z" fill="#727584" fill-opacity="0.6"/>
</svg>
