<svg width="188" height="40" viewBox="0 0 188 40" fill="none" xmlns="http://www.w3.org/2000/svg">
<path d="M177 39H187V29" stroke="#66B330"/>
<path d="M177 1H187V11" stroke="#66B330"/>
<path d="M11 39H1V29" stroke="#66B330"/>
<path d="M11 1H1V11" stroke="#66B330"/>
</svg>
