<svg width="88" height="421" viewBox="0 0 88 421" fill="none" xmlns="http://www.w3.org/2000/svg">
<path d="M12.4999 0.5C-2.83339 28.8333 -15.5001 100.2 56.4999 159C128.5 217.8 57.1666 357.5 12.4999 420" stroke="#D2DECA" stroke-dasharray="15 15"/>
</svg>
