<svg width="249" height="305" viewBox="0 0 249 305" fill="none" xmlns="http://www.w3.org/2000/svg">
<path d="M98.4193 152.5C98.4193 89.0929 117.484 34.734 144.625 11.7755V0.115481L169.598 0.325361C170.894 0.185061 172.198 0.114999 173.502 0.115481C214.964 0.115481 248.584 68.3614 248.584 152.535C248.584 236.708 214.964 304.919 173.502 304.919C172.198 304.92 170.894 304.85 169.598 304.71L144.625 304.919V293.259C117.484 270.266 98.4193 215.907 98.4193 152.5Z" fill="#649A3F"/>
<path d="M144.625 304.919C103.158 304.919 69.5423 236.679 69.5423 152.5C69.5423 68.321 103.158 0.0805054 144.625 0.0805054C186.092 0.0805054 219.707 68.321 219.707 152.5C219.707 236.679 186.092 304.919 144.625 304.919Z" fill="#91D95F"/>
<path d="M141.968 265.695C112.639 265.695 88.8636 215.016 88.8636 152.5C88.8636 89.984 112.639 39.3047 141.968 39.3047C171.296 39.3047 195.072 89.984 195.072 152.5C195.072 215.016 171.296 265.695 141.968 265.695Z" fill="white"/>
<path d="M139.451 225.177C122.164 225.177 108.15 192.638 108.15 152.5C108.15 112.362 122.164 79.8232 139.451 79.8232C156.738 79.8232 170.751 112.362 170.751 152.5C170.751 192.638 156.738 225.177 139.451 225.177Z" fill="#91D95F"/>
<path d="M137.889 182.676C131.575 182.676 126.457 169.166 126.457 152.5C126.457 135.834 131.575 122.324 137.889 122.324C144.203 122.324 149.321 135.834 149.321 152.5C149.321 169.166 144.203 182.676 137.889 182.676Z" fill="white"/>
<g style="mix-blend-mode:multiply">
<path d="M144.648 304.92C142.389 304.913 140.135 304.706 137.912 304.302V149.585L201.05 253.021C187.288 284.829 167.116 304.92 144.648 304.92Z" fill="#BAE8E8"/>
</g>
<path d="M1.61497 149.585H137.889V155.415H1.61497V149.585Z" fill="#2C698D"/>
<path d="M136.782 152.5C136.782 154.109 137.283 155.415 137.947 155.415C138.612 155.415 139.113 154.109 139.113 152.5C139.113 150.891 138.623 149.585 137.947 149.585C137.271 149.585 136.782 150.891 136.782 152.5Z" fill="#2C698D"/>
<path d="M1.62671 155.415C1.0153 155.415 0.519653 154.11 0.519653 152.5C0.519653 150.89 1.0153 149.585 1.62671 149.585C2.23812 149.585 2.73376 150.89 2.73376 152.5C2.73376 154.11 2.23812 155.415 1.62671 155.415Z" fill="#2C698D"/>
<path d="M38.9174 149.585C38.9174 149.585 15.1212 129.961 3.65436 133.121C-3.33764 135.045 4.26034 149.585 4.26034 149.585H38.9174Z" fill="#272643"/>
<path d="M38.9174 155.415C38.9174 155.415 15.1213 175.494 3.64273 172.322C-3.34927 170.351 4.24871 155.473 4.24871 155.473L38.9174 155.415Z" fill="#272643"/>
<path d="M38.8125 152.5C38.8125 152.5 15.0281 169.803 3.56122 167.017C-3.43077 165.326 4.16719 152.5 4.16719 152.5H38.8125Z" fill="#BAE8E8"/>
<path d="M134.125 151.334H124.721" stroke="white" stroke-width="0.75" stroke-linecap="round" stroke-linejoin="round"/>
<path d="M136.817 151.334H136.141" stroke="white" stroke-width="0.75" stroke-linecap="round" stroke-linejoin="round"/>
</svg>
